STAT 128 HW 2 Data Transformation
…
Which parameters are the arguments matched to in this function call? seq(3, length.out = 10, 6)

from = 3, length.out = 10, to = 6

3

The following questions refer to the flightsdata frame in nycflights13package.

In a single pipeline for each condition, find all flights that meet the condition:

Had an arrival delay of two or more hours

flights |> filter(arr_delay >= 120)

# A tibble: 10,200 × 19
    year month   day dep_time sched_dep_time dep_delay arr_time sched_arr_time
   <int> <int> <int>    <int>          <int>     <dbl>    <int>          <int>
 1  2013     1     1      811            630       101     1047            830
 2  2013     1     1      848           1835       853     1001           1950
 3  2013     1     1      957            733       144     1056            853
 4  2013     1     1     1114            900       134     1447           1222
 5  2013     1     1     1505           1310       115     1638           1431
 6  2013     1     1     1525           1340       105     1831           1626
 7  2013     1     1     1549           1445        64     1912           1656
 8  2013     1     1     1558           1359       119     1718           1515
 9  2013     1     1     1732           1630        62     2028           1825
10  2013     1     1     1803           1620       103     2008           1750
# ℹ 10,190 more rows
# ℹ 11 more variables: arr_delay <dbl>, carrier <chr>, flight <int>,
#   tailnum <chr>, origin <chr>, dest <chr>, air_time <dbl>, distance <dbl>,
#   hour <dbl>, minute <dbl>, time_hour <dttm>

Flew to Houston (IAH or HOU)

flights |> filter(dest == "IAH" | dest == "HOU")

# A tibble: 9,313 × 19
    year month   day dep_time sched_dep_time dep_delay arr_time sched_arr_time
   <int> <int> <int>    <int>          <int>     <dbl>    <int>          <int>
 1  2013     1     1      517            515         2      830            819
 2  2013     1     1      533            529         4      850            830
 3  2013     1     1      623            627        -4      933            932
 4  2013     1     1      728            732        -4     1041           1038
 5  2013     1     1      739            739         0     1104           1038
 6  2013     1     1      908            908         0     1228           1219
 7  2013     1     1     1028           1026         2     1350           1339
 8  2013     1     1     1044           1045        -1     1352           1351
 9  2013     1     1     1114            900       134     1447           1222
10  2013     1     1     1205           1200         5     1503           1505
# ℹ 9,303 more rows
# ℹ 11 more variables: arr_delay <dbl>, carrier <chr>, flight <int>,
#   tailnum <chr>, origin <chr>, dest <chr>, air_time <dbl>, distance <dbl>,
#   hour <dbl>, minute <dbl>, time_hour <dttm>

Were operated by United, American, or Delta

flights |> filter(carrier == "UA" | carrier == "AA" | carrier == "DL")

# A tibble: 139,504 × 19
    year month   day dep_time sched_dep_time dep_delay arr_time sched_arr_time
   <int> <int> <int>    <int>          <int>     <dbl>    <int>          <int>
 1  2013     1     1      517            515         2      830            819
 2  2013     1     1      533            529         4      850            830
 3  2013     1     1      542            540         2      923            850
 4  2013     1     1      554            600        -6      812            837
 5  2013     1     1      554            558        -4      740            728
 6  2013     1     1      558            600        -2      753            745
 7  2013     1     1      558            600        -2      924            917
 8  2013     1     1      558            600        -2      923            937
 9  2013     1     1      559            600        -1      941            910
10  2013     1     1      559            600        -1      854            902
# ℹ 139,494 more rows
# ℹ 11 more variables: arr_delay <dbl>, carrier <chr>, flight <int>,
#   tailnum <chr>, origin <chr>, dest <chr>, air_time <dbl>, distance <dbl>,
#   hour <dbl>, minute <dbl>, time_hour <dttm>

Departed in summer (July, August, and September)

flights |> filter(month %in% c(7,8,9))

# A tibble: 86,326 × 19
    year month   day dep_time sched_dep_time dep_delay arr_time sched_arr_time
   <int> <int> <int>    <int>          <int>     <dbl>    <int>          <int>
 1  2013     7     1        1           2029       212      236           2359
 2  2013     7     1        2           2359         3      344            344
 3  2013     7     1       29           2245       104      151              1
 4  2013     7     1       43           2130       193      322             14
 5  2013     7     1       44           2150       174      300            100
 6  2013     7     1       46           2051       235      304           2358
 7  2013     7     1       48           2001       287      308           2305
 8  2013     7     1       58           2155       183      335             43
 9  2013     7     1      100           2146       194      327             30
10  2013     7     1      100           2245       135      337            135
# ℹ 86,316 more rows
# ℹ 11 more variables: arr_delay <dbl>, carrier <chr>, flight <int>,
#   tailnum <chr>, origin <chr>, dest <chr>, air_time <dbl>, distance <dbl>,
#   hour <dbl>, minute <dbl>, time_hour <dttm>

Arrived more than two hours late, but didn’t leave late

flights |> filter (arr_delay > 120, dep_delay <= 0)

# A tibble: 29 × 19
    year month   day dep_time sched_dep_time dep_delay arr_time sched_arr_time
   <int> <int> <int>    <int>          <int>     <dbl>    <int>          <int>
 1  2013     1    27     1419           1420        -1     1754           1550
 2  2013    10     7     1350           1350         0     1736           1526
 3  2013    10     7     1357           1359        -2     1858           1654
 4  2013    10    16      657            700        -3     1258           1056
 5  2013    11     1      658            700        -2     1329           1015
 6  2013     3    18     1844           1847        -3       39           2219
 7  2013     4    17     1635           1640        -5     2049           1845
 8  2013     4    18      558            600        -2     1149            850
 9  2013     4    18      655            700        -5     1213            950
10  2013     5    22     1827           1830        -3     2217           2010
# ℹ 19 more rows
# ℹ 11 more variables: arr_delay <dbl>, carrier <chr>, flight <int>,
#   tailnum <chr>, origin <chr>, dest <chr>, air_time <dbl>, distance <dbl>,
#   hour <dbl>, minute <dbl>, time_hour <dttm>

Were delayed by at least an hour, but made up over 30 minutes in flight

flights |> filter (dep_delay >= 60, arr_delay < dep_delay - 30)

# A tibble: 1,844 × 19
    year month   day dep_time sched_dep_time dep_delay arr_time sched_arr_time
   <int> <int> <int>    <int>          <int>     <dbl>    <int>          <int>
 1  2013     1     1     2205           1720       285       46           2040
 2  2013     1     1     2326           2130       116      131             18
 3  2013     1     3     1503           1221       162     1803           1555
 4  2013     1     3     1839           1700        99     2056           1950
 5  2013     1     3     1850           1745        65     2148           2120
 6  2013     1     3     1941           1759       102     2246           2139
 7  2013     1     3     1950           1845        65     2228           2227
 8  2013     1     3     2015           1915        60     2135           2111
 9  2013     1     3     2257           2000       177       45           2224
10  2013     1     4     1917           1700       137     2135           1950
# ℹ 1,834 more rows
# ℹ 11 more variables: arr_delay <dbl>, carrier <chr>, flight <int>,
#   tailnum <chr>, origin <chr>, dest <chr>, air_time <dbl>, distance <dbl>,
#   hour <dbl>, minute <dbl>, time_hour <dttm>

Sort flights to find the flights with longest departure delays. Find the flights that left earliest in the morning.

flights |> arrange(desc(dep_delay)) 

# A tibble: 336,776 × 19
    year month   day dep_time sched_dep_time dep_delay arr_time sched_arr_time
   <int> <int> <int>    <int>          <int>     <dbl>    <int>          <int>
 1  2013     1     9      641            900      1301     1242           1530
 2  2013     6    15     1432           1935      1137     1607           2120
 3  2013     1    10     1121           1635      1126     1239           1810
 4  2013     9    20     1139           1845      1014     1457           2210
 5  2013     7    22      845           1600      1005     1044           1815
 6  2013     4    10     1100           1900       960     1342           2211
 7  2013     3    17     2321            810       911      135           1020
 8  2013     6    27      959           1900       899     1236           2226
 9  2013     7    22     2257            759       898      121           1026
10  2013    12     5      756           1700       896     1058           2020
# ℹ 336,766 more rows
# ℹ 11 more variables: arr_delay <dbl>, carrier <chr>, flight <int>,
#   tailnum <chr>, origin <chr>, dest <chr>, air_time <dbl>, distance <dbl>,
#   hour <dbl>, minute <dbl>, time_hour <dttm>

flights |> arrange(desc(dep_time))

# A tibble: 336,776 × 19
    year month   day dep_time sched_dep_time dep_delay arr_time sched_arr_time
   <int> <int> <int>    <int>          <int>     <dbl>    <int>          <int>
 1  2013    10    30     2400           2359         1      327            337
 2  2013    11    27     2400           2359         1      515            445
 3  2013    12     5     2400           2359         1      427            440
 4  2013    12     9     2400           2359         1      432            440
 5  2013    12     9     2400           2250        70       59           2356
 6  2013    12    13     2400           2359         1      432            440
 7  2013    12    19     2400           2359         1      434            440
 8  2013    12    29     2400           1700       420      302           2025
 9  2013     2     7     2400           2359         1      432            436
10  2013     2     7     2400           2359         1      443            444
# ℹ 336,766 more rows
# ℹ 11 more variables: arr_delay <dbl>, carrier <chr>, flight <int>,
#   tailnum <chr>, origin <chr>, dest <chr>, air_time <dbl>, distance <dbl>,
#   hour <dbl>, minute <dbl>, time_hour <dttm>

Sort flights to find the fastest flights. (Hint: Try including a math calculation inside of your function.)

flights |> mutate(speed = distance / air_time) |> arrange(speed)

# A tibble: 336,776 × 20
    year month   day dep_time sched_dep_time dep_delay arr_time sched_arr_time
   <int> <int> <int>    <int>          <int>     <dbl>    <int>          <int>
 1  2013     1    28     1917           1825        52     2118           1935
 2  2013     6    29      755            800        -5     1035            909
 3  2013     8    28      932            940        -8     1116           1051
 4  2013     1    30     1037            955        42     1221           1100
 5  2013    11    27      556            600        -4      727            658
 6  2013     5    21      558            600        -2      721            657
 7  2013    12     9     1540           1535         5     1720           1656
 8  2013     6    10     1356           1300        56     1646           1414
 9  2013     7    28     1322           1325        -3     1612           1432
10  2013     4    11     1349           1345         4     1542           1453
# ℹ 336,766 more rows
# ℹ 12 more variables: arr_delay <dbl>, carrier <chr>, flight <int>,
#   tailnum <chr>, origin <chr>, dest <chr>, air_time <dbl>, distance <dbl>,
#   hour <dbl>, minute <dbl>, time_hour <dttm>, speed <dbl>
…
flights |> group_by(year, month, day) |> summarize(n = n()) |> filter(n == 0)

`summarise()` has grouped output by 'year', 'month'. You can override using the
`.groups` argument.

# A tibble: 0 × 4
# Groups:   year, month [0]
# ℹ 4 variables: year <int>, month <int>, day <int>, n <int>

Which flights traveled the farthest distance? Which traveled the least distance?

flights |> arrange(desc(distance)) # farthest is flight 51

# A tibble: 336,776 × 19
    year month   day dep_time sched_dep_time dep_delay arr_time sched_arr_time
   <int> <int> <int>    <int>          <int>     <dbl>    <int>          <int>
 1  2013     1     1      857            900        -3     1516           1530
 2  2013     1     2      909            900         9     1525           1530
 3  2013     1     3      914            900        14     1504           1530
 4  2013     1     4      900            900         0     1516           1530
 5  2013     1     5      858            900        -2     1519           1530
 6  2013     1     6     1019            900        79     1558           1530
 7  2013     1     7     1042            900       102     1620           1530
 8  2013     1     8      901            900         1     1504           1530
 9  2013     1     9      641            900      1301     1242           1530
10  2013     1    10      859            900        -1     1449           1530
# ℹ 336,766 more rows
# ℹ 11 more variables: arr_delay <dbl>, carrier <chr>, flight <int>,
#   tailnum <chr>, origin <chr>, dest <chr>, air_time <dbl>, distance <dbl>,
#   hour <dbl>, minute <dbl>, time_hour <dttm>

flights |> arrange(distance)       # shortest is flight 1632

# A tibble: 336,776 × 19
    year month   day dep_time sched_dep_time dep_delay arr_time sched_arr_time
   <int> <int> <int>    <int>          <int>     <dbl>    <int>          <int>
 1  2013     7    27       NA            106        NA       NA            245
 2  2013     1     3     2127           2129        -2     2222           2224
 3  2013     1     4     1240           1200        40     1333           1306
 4  2013     1     4     1829           1615       134     1937           1721
 5  2013     1     4     2128           2129        -1     2218           2224
 6  2013     1     5     1155           1200        -5     1241           1306
 7  2013     1     6     2125           2129        -4     2224           2224
 8  2013     1     7     2124           2129        -5     2212           2224
 9  2013     1     8     2127           2130        -3     2304           2225
10  2013     1     9     2126           2129        -3     2217           2224
# ℹ 336,766 more rows
# ℹ 11 more variables: arr_delay <dbl>, carrier <chr>, flight <int>,
#   tailnum <chr>, origin <chr>, dest <chr>, air_time <dbl>, distance <dbl>,
#   hour <dbl>, minute <dbl>, time_hour <dttm>

Does it matter what order you used filter() and arrange() if you’re using both? Why/why not? Think about the results and how much work the functions would have to do.

The order of filter() and arrange() shouldn’t affect the final result, but there may be a difference in performance when filtering since it reduces the number of rows afterward, resulting in faster subsequent searches

What happens if you specify the name of the same variable multiple times in a select() call?

That same variable would appear multiple times in the same output.

Rename air_time to air_time_min to indicate units of measurement and move it to the beginning of the data frame.

flights |> rename(air_time_min = air_time) |> select(air_time_min, everything())

# A tibble: 336,776 × 19
   air_time_min  year month   day dep_time sched_dep_time dep_delay arr_time
          <dbl> <int> <int> <int>    <int>          <int>     <dbl>    <int>
 1          227  2013     1     1      517            515         2      830
 2          227  2013     1     1      533            529         4      850
 3          160  2013     1     1      542            540         2      923
 4          183  2013     1     1      544            545        -1     1004
 5          116  2013     1     1      554            600        -6      812
 6          150  2013     1     1      554            558        -4      740
 7          158  2013     1     1      555            600        -5      913
 8           53  2013     1     1      557            600        -3      709
 9          140  2013     1     1      557            600        -3      838
10          138  2013     1     1      558            600        -2      753
# ℹ 336,766 more rows
# ℹ 11 more variables: sched_arr_time <int>, arr_delay <dbl>, carrier <chr>,
#   flight <int>, tailnum <chr>, origin <chr>, dest <chr>, distance <dbl>,
#   hour <dbl>, minute <dbl>, time_hour <dttm>
…
On average, it seems like carrier F9 has the longest delays, so it doesn’t look like they’re doing too hot.

Find the flights that are most delayed upon departure from each destination.

flights |> group_by(dest) |> filter(dep_delay == max(dep_delay, na.rm = TRUE))

Warning: There was 1 warning in `filter()`.
ℹ In argument: `dep_delay == max(dep_delay, na.rm = TRUE)`.
ℹ In group 52: `dest = "LGA"`.
Caused by warning in `max()`:
! no non-missing arguments to max; returning -Inf

# A tibble: 104 × 19
# Groups:   dest [104]
    year month   day dep_time sched_dep_time dep_delay arr_time sched_arr_time
   <int> <int> <int>    <int>          <int>     <dbl>    <int>          <int>
 1  2013     1     1      848           1835       853     1001           1950
 2  2013     1     1     2343           1724       379      314           1938
 3  2013     1     2     1244            900       224     1431           1104
 4  2013     1     9      641            900      1301     1242           1530
 5  2013     1    10     1121           1635      1126     1239           1810
 6  2013     1    20     2347           1936       251      230           2208
 7  2013     1    24     2051           1522       329     2307           1727
 8  2013     1    25      123           2000       323      229           2101
 9  2013    11    22     2013           1905        68     2224           2131
10  2013    11    24     2026           2035        -9     2227           2249
# ℹ 94 more rows
# ℹ 11 more variables: arr_delay <dbl>, carrier <chr>, flight <int>,
#   tailnum <chr>, origin <chr>, dest <chr>, air_time <dbl>, distance <dbl>,
#   hour <dbl>, minute <dbl>, time_hour <dttm>
…
